<?xml version="1.0" encoding="UTF-8" standalone="no"?>
<!-- Created with Inkscape (http://www.inkscape.org/) -->

<svg
   xmlns:dc="http://purl.org/dc/elements/1.1/"
   xmlns:cc="http://creativecommons.org/ns#"
   xmlns:rdf="http://www.w3.org/1999/02/22-rdf-syntax-ns#"
   xmlns:svg="http://www.w3.org/2000/svg"
   xmlns="http://www.w3.org/2000/svg"
   xmlns:sodipodi="http://sodipodi.sourceforge.net/DTD/sodipodi-0.dtd"
   xmlns:inkscape="http://www.inkscape.org/namespaces/inkscape"
   id="svg2"
   version="1.1"
   inkscape:version="0.91 r13725"
   xml:space="preserve"
   width="576.84656"
   height="549.40161"
   viewBox="0 0 576.84656 549.40161"
   sodipodi:docname="figure2.svg"><metadata
     id="metadata8"><rdf:RDF><cc:Work
         rdf:about=""><dc:format>image/svg+xml</dc:format><dc:type
           rdf:resource="http://purl.org/dc/dcmitype/StillImage" /><dc:title></dc:title></cc:Work></rdf:RDF></metadata><defs
     id="defs6" /><sodipodi:namedview
     pagecolor="#ffffff"
     bordercolor="#666666"
     borderopacity="1"
     objecttolerance="10"
     gridtolerance="10"
     guidetolerance="10"
     inkscape:pageopacity="0"
     inkscape:pageshadow="2"
     inkscape:window-width="1861"
     inkscape:window-height="1056"
     id="namedview4"
     showgrid="false"
     fit-margin-top="20"
     fit-margin-right="20"
     fit-margin-bottom="20"
     fit-margin-left="20"
     inkscape:zoom="1.0595378"
     inkscape:cx="297.60615"
     inkscape:cy="266.81941"
     inkscape:window-x="59"
     inkscape:window-y="24"
     inkscape:window-maximized="1"
     inkscape:current-layer="g10" /><g
     id="g10"
     inkscape:groupmode="layer"
     inkscape:label="alpha"
     transform="matrix(1.25,0,0,-1.25,-80.845,542.06875)"><g
       id="g12" /><g
       id="g14"><path
         d="m 250.66,86.72 0,11.11 19.34,0 0,-11.11 -19.34,0 z"
         style="fill:#070813;fill-opacity:0.6;fill-rule:nonzero;stroke:none"
         id="path16"
         inkscape:connector-curvature="0" /><path
         d="m 260.33,86.72 0,11.11"
         style="fill:none;stroke:#070813;stroke-width:2.25;stroke-linecap:butt;stroke-linejoin:round;stroke-miterlimit:10;stroke-dasharray:none;stroke-opacity:1"
         id="path18"
         inkscape:connector-curvature="0" /><path
         d="m 250.66,92.28 0,0"
         style="fill:none;stroke:#070813;stroke-width:0.75;stroke-linecap:round;stroke-linejoin:round;stroke-miterlimit:10;stroke-dasharray:2.25, 3.75;stroke-dashoffset:0;stroke-opacity:1"
         id="path20"
         inkscape:connector-curvature="0" /><path
         d="m 270,92.28 0,0"
         style="fill:none;stroke:#070813;stroke-width:0.75;stroke-linecap:round;stroke-linejoin:round;stroke-miterlimit:10;stroke-dasharray:2.25, 3.75;stroke-dashoffset:0;stroke-opacity:1"
         id="path22"
         inkscape:connector-curvature="0" /><path
         d="m 250.66,89.5 0,5.56"
         style="fill:none;stroke:#070813;stroke-width:0.75;stroke-linecap:round;stroke-linejoin:round;stroke-miterlimit:10;stroke-dasharray:none;stroke-opacity:1"
         id="path24"
         inkscape:connector-curvature="0" /><path
         d="m 270,89.5 0,5.56"
         style="fill:none;stroke:#070813;stroke-width:0.75;stroke-linecap:round;stroke-linejoin:round;stroke-miterlimit:10;stroke-dasharray:none;stroke-opacity:1"
         id="path26"
         inkscape:connector-curvature="0" /><path
         d="m 250.66,86.72 0,11.11 19.34,0 0,-11.11 -19.34,0"
         style="fill:none;stroke:#070813;stroke-width:0.75;stroke-linecap:round;stroke-linejoin:round;stroke-miterlimit:10;stroke-dasharray:none;stroke-opacity:1"
         id="path28"
         inkscape:connector-curvature="0" /><path
         d="m 255.29,100.61 0,11.11 9.36,0 0,-11.11 -9.36,0 z"
         style="fill:#4e6686;fill-opacity:0.6;fill-rule:nonzero;stroke:none"
         id="path30"
         inkscape:connector-curvature="0" /><path
         d="m 259.97,100.61 0,11.11"
         style="fill:none;stroke:#4e6686;stroke-width:2.25;stroke-linecap:butt;stroke-linejoin:round;stroke-miterlimit:10;stroke-dasharray:none;stroke-opacity:1"
         id="path32"
         inkscape:connector-curvature="0" /><path
         d="m 255.29,106.17 0,0"
         style="fill:none;stroke:#4e6686;stroke-width:0.75;stroke-linecap:round;stroke-linejoin:round;stroke-miterlimit:10;stroke-dasharray:2.25, 3.75;stroke-dashoffset:0;stroke-opacity:1"
         id="path34"
         inkscape:connector-curvature="0" /><path
         d="m 264.65,106.17 0,0"
         style="fill:none;stroke:#4e6686;stroke-width:0.75;stroke-linecap:round;stroke-linejoin:round;stroke-miterlimit:10;stroke-dasharray:2.25, 3.75;stroke-dashoffset:0;stroke-opacity:1"
         id="path36"
         inkscape:connector-curvature="0" /><path
         d="m 255.29,103.39 0,5.55"
         style="fill:none;stroke:#4e6686;stroke-width:0.75;stroke-linecap:round;stroke-linejoin:round;stroke-miterlimit:10;stroke-dasharray:none;stroke-opacity:1"
         id="path38"
         inkscape:connector-curvature="0" /><path
         d="m 264.65,103.39 0,5.55"
         style="fill:none;stroke:#4e6686;stroke-width:0.75;stroke-linecap:round;stroke-linejoin:round;stroke-miterlimit:10;stroke-dasharray:none;stroke-opacity:1"
         id="path40"
         inkscape:connector-curvature="0" /><path
         d="m 255.29,100.61 0,11.11 9.36,0 0,-11.11 -9.36,0"
         style="fill:none;stroke:#4e6686;stroke-width:0.75;stroke-linecap:round;stroke-linejoin:round;stroke-miterlimit:10;stroke-dasharray:none;stroke-opacity:1"
         id="path42"
         inkscape:connector-curvature="0" /><path
         d="m 263.47,114.5 0,11.11 46.2,0 0,-11.11 -46.2,0 z"
         style="fill:#fedb3a;fill-opacity:0.6;fill-rule:nonzero;stroke:none"
         id="path44"
         inkscape:connector-curvature="0" /><path
         d="m 286.57,114.5 0,11.11"
         style="fill:none;stroke:#fedb3a;stroke-width:2.25;stroke-linecap:butt;stroke-linejoin:round;stroke-miterlimit:10;stroke-dasharray:none;stroke-opacity:1"
         id="path46"
         inkscape:connector-curvature="0" /><path
         d="m 263.47,120.06 0,0"
         style="fill:none;stroke:#fedb3a;stroke-width:0.75;stroke-linecap:round;stroke-linejoin:round;stroke-miterlimit:10;stroke-dasharray:2.25, 3.75;stroke-dashoffset:0;stroke-opacity:1"
         id="path48"
         inkscape:connector-curvature="0" /><path
         d="m 309.67,120.06 0,0"
         style="fill:none;stroke:#fedb3a;stroke-width:0.75;stroke-linecap:round;stroke-linejoin:round;stroke-miterlimit:10;stroke-dasharray:2.25, 3.75;stroke-dashoffset:0;stroke-opacity:1"
         id="path50"
         inkscape:connector-curvature="0" /><path
         d="m 263.47,117.28 0,5.55"
         style="fill:none;stroke:#fedb3a;stroke-width:0.75;stroke-linecap:round;stroke-linejoin:round;stroke-miterlimit:10;stroke-dasharray:none;stroke-opacity:1"
         id="path52"
         inkscape:connector-curvature="0" /><path
         d="m 309.67,117.28 0,5.55"
         style="fill:none;stroke:#fedb3a;stroke-width:0.75;stroke-linecap:round;stroke-linejoin:round;stroke-miterlimit:10;stroke-dasharray:none;stroke-opacity:1"
         id="path54"
         inkscape:connector-curvature="0" /><path
         d="m 263.47,114.5 0,11.11 46.2,0 0,-11.11 -46.2,0"
         style="fill:none;stroke:#fedb3a;stroke-width:0.75;stroke-linecap:round;stroke-linejoin:round;stroke-miterlimit:10;stroke-dasharray:none;stroke-opacity:1"
         id="path56"
         inkscape:connector-curvature="0" /><path
         d="m 266.72,128.39 0,11.11 22.69,0 0,-11.11 -22.69,0 z"
         style="fill:#fe6219;fill-opacity:0.6;fill-rule:nonzero;stroke:none"
         id="path58"
         inkscape:connector-curvature="0" /><path
         d="m 278.07,128.39 0,11.11"
         style="fill:none;stroke:#fe6219;stroke-width:2.25;stroke-linecap:butt;stroke-linejoin:round;stroke-miterlimit:10;stroke-dasharray:none;stroke-opacity:1"
         id="path60"
         inkscape:connector-curvature="0" /><path
         d="m 266.72,133.94 0,0"
         style="fill:none;stroke:#fe6219;stroke-width:0.75;stroke-linecap:round;stroke-linejoin:round;stroke-miterlimit:10;stroke-dasharray:2.25, 3.75;stroke-dashoffset:0;stroke-opacity:1"
         id="path62"
         inkscape:connector-curvature="0" /><path
         d="m 289.41,133.94 0,0"
         style="fill:none;stroke:#fe6219;stroke-width:0.75;stroke-linecap:round;stroke-linejoin:round;stroke-miterlimit:10;stroke-dasharray:2.25, 3.75;stroke-dashoffset:0;stroke-opacity:1"
         id="path64"
         inkscape:connector-curvature="0" /><path
         d="m 266.72,131.17 0,5.55"
         style="fill:none;stroke:#fe6219;stroke-width:0.75;stroke-linecap:round;stroke-linejoin:round;stroke-miterlimit:10;stroke-dasharray:none;stroke-opacity:1"
         id="path66"
         inkscape:connector-curvature="0" /><path
         d="m 289.41,131.17 0,5.55"
         style="fill:none;stroke:#fe6219;stroke-width:0.75;stroke-linecap:round;stroke-linejoin:round;stroke-miterlimit:10;stroke-dasharray:none;stroke-opacity:1"
         id="path68"
         inkscape:connector-curvature="0" /><path
         d="m 266.72,128.39 0,11.11 22.69,0 0,-11.11 -22.69,0"
         style="fill:none;stroke:#fe6219;stroke-width:0.75;stroke-linecap:round;stroke-linejoin:round;stroke-miterlimit:10;stroke-dasharray:none;stroke-opacity:1"
         id="path70"
         inkscape:connector-curvature="0" /><path
         d="m 253.59,156.17 0,11.11 49.49,0 0,-11.11 -49.49,0 z"
         style="fill:#070813;fill-opacity:0.6;fill-rule:nonzero;stroke:none"
         id="path72"
         inkscape:connector-curvature="0" /><path
         d="m 278.33,156.17 0,11.11"
         style="fill:none;stroke:#070813;stroke-width:2.25;stroke-linecap:butt;stroke-linejoin:round;stroke-miterlimit:10;stroke-dasharray:none;stroke-opacity:1"
         id="path74"
         inkscape:connector-curvature="0" /><path
         d="m 253.59,161.72 0,0"
         style="fill:none;stroke:#070813;stroke-width:0.75;stroke-linecap:round;stroke-linejoin:round;stroke-miterlimit:10;stroke-dasharray:2.25, 3.75;stroke-dashoffset:0;stroke-opacity:1"
         id="path76"
         inkscape:connector-curvature="0" /><path
         d="m 303.08,161.72 0,0"
         style="fill:none;stroke:#070813;stroke-width:0.75;stroke-linecap:round;stroke-linejoin:round;stroke-miterlimit:10;stroke-dasharray:2.25, 3.75;stroke-dashoffset:0;stroke-opacity:1"
         id="path78"
         inkscape:connector-curvature="0" /><path
         d="m 253.59,158.94 0,5.56"
         style="fill:none;stroke:#070813;stroke-width:0.75;stroke-linecap:round;stroke-linejoin:round;stroke-miterlimit:10;stroke-dasharray:none;stroke-opacity:1"
         id="path80"
         inkscape:connector-curvature="0" /><path
         d="m 303.08,158.94 0,5.56"
         style="fill:none;stroke:#070813;stroke-width:0.75;stroke-linecap:round;stroke-linejoin:round;stroke-miterlimit:10;stroke-dasharray:none;stroke-opacity:1"
         id="path82"
         inkscape:connector-curvature="0" /><path
         d="m 253.59,156.17 0,11.11 49.49,0 0,-11.11 -49.49,0"
         style="fill:none;stroke:#070813;stroke-width:0.75;stroke-linecap:round;stroke-linejoin:round;stroke-miterlimit:10;stroke-dasharray:none;stroke-opacity:1"
         id="path84"
         inkscape:connector-curvature="0" /><path
         d="m 272.27,170.06 0,11.11 29.52,0 0,-11.11 -29.52,0 z"
         style="fill:#4e6686;fill-opacity:0.6;fill-rule:nonzero;stroke:none"
         id="path86"
         inkscape:connector-curvature="0" /><path
         d="m 287.03,170.06 0,11.11"
         style="fill:none;stroke:#4e6686;stroke-width:2.25;stroke-linecap:butt;stroke-linejoin:round;stroke-miterlimit:10;stroke-dasharray:none;stroke-opacity:1"
         id="path88"
         inkscape:connector-curvature="0" /><path
         d="m 272.27,175.61 0,0"
         style="fill:none;stroke:#4e6686;stroke-width:0.75;stroke-linecap:round;stroke-linejoin:round;stroke-miterlimit:10;stroke-dasharray:2.25, 3.75;stroke-dashoffset:0;stroke-opacity:1"
         id="path90"
         inkscape:connector-curvature="0" /><path
         d="m 301.79,175.61 0,0"
         style="fill:none;stroke:#4e6686;stroke-width:0.75;stroke-linecap:round;stroke-linejoin:round;stroke-miterlimit:10;stroke-dasharray:2.25, 3.75;stroke-dashoffset:0;stroke-opacity:1"
         id="path92"
         inkscape:connector-curvature="0" /><path
         d="m 272.27,172.83 0,5.56"
         style="fill:none;stroke:#4e6686;stroke-width:0.75;stroke-linecap:round;stroke-linejoin:round;stroke-miterlimit:10;stroke-dasharray:none;stroke-opacity:1"
         id="path94"
         inkscape:connector-curvature="0" /><path
         d="m 301.79,172.83 0,5.56"
         style="fill:none;stroke:#4e6686;stroke-width:0.75;stroke-linecap:round;stroke-linejoin:round;stroke-miterlimit:10;stroke-dasharray:none;stroke-opacity:1"
         id="path96"
         inkscape:connector-curvature="0" /><path
         d="m 272.27,170.06 0,11.11 29.52,0 0,-11.11 -29.52,0"
         style="fill:none;stroke:#4e6686;stroke-width:0.75;stroke-linecap:round;stroke-linejoin:round;stroke-miterlimit:10;stroke-dasharray:none;stroke-opacity:1"
         id="path98"
         inkscape:connector-curvature="0" /><path
         d="m 278.46,183.94 0,11.12 2.74,0 0,-11.12 -2.74,0 z"
         style="fill:#fedb3a;fill-opacity:0.6;fill-rule:nonzero;stroke:none"
         id="path100"
         inkscape:connector-curvature="0" /><path
         d="m 279.83,183.94 0,11.12"
         style="fill:none;stroke:#fedb3a;stroke-width:2.25;stroke-linecap:butt;stroke-linejoin:round;stroke-miterlimit:10;stroke-dasharray:none;stroke-opacity:1"
         id="path102"
         inkscape:connector-curvature="0" /><path
         d="m 278.46,189.5 0,0"
         style="fill:none;stroke:#fedb3a;stroke-width:0.75;stroke-linecap:round;stroke-linejoin:round;stroke-miterlimit:10;stroke-dasharray:2.25, 3.75;stroke-dashoffset:0;stroke-opacity:1"
         id="path104"
         inkscape:connector-curvature="0" /><path
         d="m 281.2,189.5 0,0"
         style="fill:none;stroke:#fedb3a;stroke-width:0.75;stroke-linecap:round;stroke-linejoin:round;stroke-miterlimit:10;stroke-dasharray:2.25, 3.75;stroke-dashoffset:0;stroke-opacity:1"
         id="path106"
         inkscape:connector-curvature="0" /><path
         d="m 278.46,186.72 0,5.56"
         style="fill:none;stroke:#fedb3a;stroke-width:0.75;stroke-linecap:round;stroke-linejoin:round;stroke-miterlimit:10;stroke-dasharray:none;stroke-opacity:1"
         id="path108"
         inkscape:connector-curvature="0" /><path
         d="m 281.2,186.72 0,5.56"
         style="fill:none;stroke:#fedb3a;stroke-width:0.75;stroke-linecap:round;stroke-linejoin:round;stroke-miterlimit:10;stroke-dasharray:none;stroke-opacity:1"
         id="path110"
         inkscape:connector-curvature="0" /><path
         d="m 278.46,183.94 0,11.12 2.74,0 0,-11.12 -2.74,0"
         style="fill:none;stroke:#fedb3a;stroke-width:0.75;stroke-linecap:round;stroke-linejoin:round;stroke-miterlimit:10;stroke-dasharray:none;stroke-opacity:1"
         id="path112"
         inkscape:connector-curvature="0" /><path
         d="m 337.2,197.83 0,11.11 17.47,0 0,-11.11 -17.47,0 z"
         style="fill:#fe6219;fill-opacity:0.6;fill-rule:nonzero;stroke:none"
         id="path114"
         inkscape:connector-curvature="0" /><path
         d="m 345.93,197.83 0,11.11"
         style="fill:none;stroke:#fe6219;stroke-width:2.25;stroke-linecap:butt;stroke-linejoin:round;stroke-miterlimit:10;stroke-dasharray:none;stroke-opacity:1"
         id="path116"
         inkscape:connector-curvature="0" /><path
         d="m 337.2,203.39 0,0"
         style="fill:none;stroke:#fe6219;stroke-width:0.75;stroke-linecap:round;stroke-linejoin:round;stroke-miterlimit:10;stroke-dasharray:2.25, 3.75;stroke-dashoffset:0;stroke-opacity:1"
         id="path118"
         inkscape:connector-curvature="0" /><path
         d="m 354.67,203.39 0,0"
         style="fill:none;stroke:#fe6219;stroke-width:0.75;stroke-linecap:round;stroke-linejoin:round;stroke-miterlimit:10;stroke-dasharray:2.25, 3.75;stroke-dashoffset:0;stroke-opacity:1"
         id="path120"
         inkscape:connector-curvature="0" /><path
         d="m 337.2,200.61 0,5.56"
         style="fill:none;stroke:#fe6219;stroke-width:0.75;stroke-linecap:round;stroke-linejoin:round;stroke-miterlimit:10;stroke-dasharray:none;stroke-opacity:1"
         id="path122"
         inkscape:connector-curvature="0" /><path
         d="m 354.67,200.61 0,5.56"
         style="fill:none;stroke:#fe6219;stroke-width:0.75;stroke-linecap:round;stroke-linejoin:round;stroke-miterlimit:10;stroke-dasharray:none;stroke-opacity:1"
         id="path124"
         inkscape:connector-curvature="0" /><path
         d="m 337.2,197.83 0,11.11 17.47,0 0,-11.11 -17.47,0"
         style="fill:none;stroke:#fe6219;stroke-width:0.75;stroke-linecap:round;stroke-linejoin:round;stroke-miterlimit:10;stroke-dasharray:none;stroke-opacity:1"
         id="path126"
         inkscape:connector-curvature="0" /><path
         d="m 249.88,225.61 0,11.11 37.14,0 0,-11.11 -37.14,0 z"
         style="fill:#070813;fill-opacity:0.6;fill-rule:nonzero;stroke:none"
         id="path128"
         inkscape:connector-curvature="0" /><path
         d="m 268.45,225.61 0,11.11"
         style="fill:none;stroke:#070813;stroke-width:2.25;stroke-linecap:butt;stroke-linejoin:round;stroke-miterlimit:10;stroke-dasharray:none;stroke-opacity:1"
         id="path130"
         inkscape:connector-curvature="0" /><path
         d="m 249.88,231.17 0,0"
         style="fill:none;stroke:#070813;stroke-width:0.75;stroke-linecap:round;stroke-linejoin:round;stroke-miterlimit:10;stroke-dasharray:2.25, 3.75;stroke-dashoffset:0;stroke-opacity:1"
         id="path132"
         inkscape:connector-curvature="0" /><path
         d="m 287.02,231.17 0,0"
         style="fill:none;stroke:#070813;stroke-width:0.75;stroke-linecap:round;stroke-linejoin:round;stroke-miterlimit:10;stroke-dasharray:2.25, 3.75;stroke-dashoffset:0;stroke-opacity:1"
         id="path134"
         inkscape:connector-curvature="0" /><path
         d="m 249.88,228.39 0,5.55"
         style="fill:none;stroke:#070813;stroke-width:0.75;stroke-linecap:round;stroke-linejoin:round;stroke-miterlimit:10;stroke-dasharray:none;stroke-opacity:1"
         id="path136"
         inkscape:connector-curvature="0" /><path
         d="m 287.02,228.39 0,5.55"
         style="fill:none;stroke:#070813;stroke-width:0.75;stroke-linecap:round;stroke-linejoin:round;stroke-miterlimit:10;stroke-dasharray:none;stroke-opacity:1"
         id="path138"
         inkscape:connector-curvature="0" /><path
         d="m 249.88,225.61 0,11.11 37.14,0 0,-11.11 -37.14,0"
         style="fill:none;stroke:#070813;stroke-width:0.75;stroke-linecap:round;stroke-linejoin:round;stroke-miterlimit:10;stroke-dasharray:none;stroke-opacity:1"
         id="path140"
         inkscape:connector-curvature="0" /><path
         d="m 240.12,239.5 0,11.11 4.14,0 0,-11.11 -4.14,0 z"
         style="fill:#4e6686;fill-opacity:0.6;fill-rule:nonzero;stroke:none"
         id="path142"
         inkscape:connector-curvature="0" /><path
         d="m 242.19,239.5 0,11.11"
         style="fill:none;stroke:#4e6686;stroke-width:2.25;stroke-linecap:butt;stroke-linejoin:round;stroke-miterlimit:10;stroke-dasharray:none;stroke-opacity:1"
         id="path144"
         inkscape:connector-curvature="0" /><path
         d="m 240.12,245.06 0,0"
         style="fill:none;stroke:#4e6686;stroke-width:0.75;stroke-linecap:round;stroke-linejoin:round;stroke-miterlimit:10;stroke-dasharray:2.25, 3.75;stroke-dashoffset:0;stroke-opacity:1"
         id="path146"
         inkscape:connector-curvature="0" /><path
         d="m 244.26,245.06 0,0"
         style="fill:none;stroke:#4e6686;stroke-width:0.75;stroke-linecap:round;stroke-linejoin:round;stroke-miterlimit:10;stroke-dasharray:2.25, 3.75;stroke-dashoffset:0;stroke-opacity:1"
         id="path148"
         inkscape:connector-curvature="0" /><path
         d="m 240.12,242.28 0,5.55"
         style="fill:none;stroke:#4e6686;stroke-width:0.75;stroke-linecap:round;stroke-linejoin:round;stroke-miterlimit:10;stroke-dasharray:none;stroke-opacity:1"
         id="path150"
         inkscape:connector-curvature="0" /><path
         d="m 244.26,242.28 0,5.55"
         style="fill:none;stroke:#4e6686;stroke-width:0.75;stroke-linecap:round;stroke-linejoin:round;stroke-miterlimit:10;stroke-dasharray:none;stroke-opacity:1"
         id="path152"
         inkscape:connector-curvature="0" /><path
         d="m 240.12,239.5 0,11.11 4.14,0 0,-11.11 -4.14,0"
         style="fill:none;stroke:#4e6686;stroke-width:0.75;stroke-linecap:round;stroke-linejoin:round;stroke-miterlimit:10;stroke-dasharray:none;stroke-opacity:1"
         id="path154"
         inkscape:connector-curvature="0" /><path
         d="m 267.19,253.39 0,11.11 9.19,0 0,-11.11 -9.19,0 z"
         style="fill:#fedb3a;fill-opacity:0.6;fill-rule:nonzero;stroke:none"
         id="path156"
         inkscape:connector-curvature="0" /><path
         d="m 271.79,253.39 0,11.11"
         style="fill:none;stroke:#fedb3a;stroke-width:2.25;stroke-linecap:butt;stroke-linejoin:round;stroke-miterlimit:10;stroke-dasharray:none;stroke-opacity:1"
         id="path158"
         inkscape:connector-curvature="0" /><path
         d="m 267.19,258.94 0,0"
         style="fill:none;stroke:#fedb3a;stroke-width:0.75;stroke-linecap:round;stroke-linejoin:round;stroke-miterlimit:10;stroke-dasharray:2.25, 3.75;stroke-dashoffset:0;stroke-opacity:1"
         id="path160"
         inkscape:connector-curvature="0" /><path
         d="m 276.38,258.94 0,0"
         style="fill:none;stroke:#fedb3a;stroke-width:0.75;stroke-linecap:round;stroke-linejoin:round;stroke-miterlimit:10;stroke-dasharray:2.25, 3.75;stroke-dashoffset:0;stroke-opacity:1"
         id="path162"
         inkscape:connector-curvature="0" /><path
         d="m 267.19,256.17 0,5.55"
         style="fill:none;stroke:#fedb3a;stroke-width:0.75;stroke-linecap:round;stroke-linejoin:round;stroke-miterlimit:10;stroke-dasharray:none;stroke-opacity:1"
         id="path164"
         inkscape:connector-curvature="0" /><path
         d="m 276.38,256.17 0,5.55"
         style="fill:none;stroke:#fedb3a;stroke-width:0.75;stroke-linecap:round;stroke-linejoin:round;stroke-miterlimit:10;stroke-dasharray:none;stroke-opacity:1"
         id="path166"
         inkscape:connector-curvature="0" /><path
         d="m 267.19,253.39 0,11.11 9.19,0 0,-11.11 -9.19,0"
         style="fill:none;stroke:#fedb3a;stroke-width:0.75;stroke-linecap:round;stroke-linejoin:round;stroke-miterlimit:10;stroke-dasharray:none;stroke-opacity:1"
         id="path168"
         inkscape:connector-curvature="0" /><path
         d="m 275.48,267.28 0,11.11 17.42,0 0,-11.11 -17.42,0 z"
         style="fill:#fe6219;fill-opacity:0.6;fill-rule:nonzero;stroke:none"
         id="path170"
         inkscape:connector-curvature="0" /><path
         d="m 284.19,267.28 0,11.11"
         style="fill:none;stroke:#fe6219;stroke-width:2.25;stroke-linecap:butt;stroke-linejoin:round;stroke-miterlimit:10;stroke-dasharray:none;stroke-opacity:1"
         id="path172"
         inkscape:connector-curvature="0" /><path
         d="m 275.48,272.83 0,0"
         style="fill:none;stroke:#fe6219;stroke-width:0.75;stroke-linecap:round;stroke-linejoin:round;stroke-miterlimit:10;stroke-dasharray:2.25, 3.75;stroke-dashoffset:0;stroke-opacity:1"
         id="path174"
         inkscape:connector-curvature="0" /><path
         d="m 292.9,272.83 0,0"
         style="fill:none;stroke:#fe6219;stroke-width:0.75;stroke-linecap:round;stroke-linejoin:round;stroke-miterlimit:10;stroke-dasharray:2.25, 3.75;stroke-dashoffset:0;stroke-opacity:1"
         id="path176"
         inkscape:connector-curvature="0" /><path
         d="m 275.48,270.06 0,5.55"
         style="fill:none;stroke:#fe6219;stroke-width:0.75;stroke-linecap:round;stroke-linejoin:round;stroke-miterlimit:10;stroke-dasharray:none;stroke-opacity:1"
         id="path178"
         inkscape:connector-curvature="0" /><path
         d="m 292.9,270.06 0,5.55"
         style="fill:none;stroke:#fe6219;stroke-width:0.75;stroke-linecap:round;stroke-linejoin:round;stroke-miterlimit:10;stroke-dasharray:none;stroke-opacity:1"
         id="path180"
         inkscape:connector-curvature="0" /><path
         d="m 275.48,267.28 0,11.11 17.42,0 0,-11.11 -17.42,0"
         style="fill:none;stroke:#fe6219;stroke-width:0.75;stroke-linecap:round;stroke-linejoin:round;stroke-miterlimit:10;stroke-dasharray:none;stroke-opacity:1"
         id="path182"
         inkscape:connector-curvature="0" /><path
         d="m 221.33,295.06 0,11.11 40.76,0 0,-11.11 -40.76,0 z"
         style="fill:#070813;fill-opacity:0.6;fill-rule:nonzero;stroke:none"
         id="path184"
         inkscape:connector-curvature="0" /><path
         d="m 241.71,295.06 0,11.11"
         style="fill:none;stroke:#070813;stroke-width:2.25;stroke-linecap:butt;stroke-linejoin:round;stroke-miterlimit:10;stroke-dasharray:none;stroke-opacity:1"
         id="path186"
         inkscape:connector-curvature="0" /><path
         d="m 221.33,300.61 0,0"
         style="fill:none;stroke:#070813;stroke-width:0.75;stroke-linecap:round;stroke-linejoin:round;stroke-miterlimit:10;stroke-dasharray:2.25, 3.75;stroke-dashoffset:0;stroke-opacity:1"
         id="path188"
         inkscape:connector-curvature="0" /><path
         d="m 262.09,300.61 0,0"
         style="fill:none;stroke:#070813;stroke-width:0.75;stroke-linecap:round;stroke-linejoin:round;stroke-miterlimit:10;stroke-dasharray:2.25, 3.75;stroke-dashoffset:0;stroke-opacity:1"
         id="path190"
         inkscape:connector-curvature="0" /><path
         d="m 221.33,297.83 0,5.56"
         style="fill:none;stroke:#070813;stroke-width:0.75;stroke-linecap:round;stroke-linejoin:round;stroke-miterlimit:10;stroke-dasharray:none;stroke-opacity:1"
         id="path192"
         inkscape:connector-curvature="0" /><path
         d="m 262.09,297.83 0,5.56"
         style="fill:none;stroke:#070813;stroke-width:0.75;stroke-linecap:round;stroke-linejoin:round;stroke-miterlimit:10;stroke-dasharray:none;stroke-opacity:1"
         id="path194"
         inkscape:connector-curvature="0" /><path
         d="m 221.33,295.06 0,11.11 40.76,0 0,-11.11 -40.76,0"
         style="fill:none;stroke:#070813;stroke-width:0.75;stroke-linecap:round;stroke-linejoin:round;stroke-miterlimit:10;stroke-dasharray:none;stroke-opacity:1"
         id="path196"
         inkscape:connector-curvature="0" /><path
         d="m 242.87,308.94 0,11.12 11.74,0 0,-11.12 -11.74,0 z"
         style="fill:#4e6686;fill-opacity:0.6;fill-rule:nonzero;stroke:none"
         id="path198"
         inkscape:connector-curvature="0" /><path
         d="m 248.74,308.94 0,11.12"
         style="fill:none;stroke:#4e6686;stroke-width:2.25;stroke-linecap:butt;stroke-linejoin:round;stroke-miterlimit:10;stroke-dasharray:none;stroke-opacity:1"
         id="path200"
         inkscape:connector-curvature="0" /><path
         d="m 242.87,314.5 0,0"
         style="fill:none;stroke:#4e6686;stroke-width:0.75;stroke-linecap:round;stroke-linejoin:round;stroke-miterlimit:10;stroke-dasharray:2.25, 3.75;stroke-dashoffset:0;stroke-opacity:1"
         id="path202"
         inkscape:connector-curvature="0" /><path
         d="m 254.61,314.5 0,0"
         style="fill:none;stroke:#4e6686;stroke-width:0.75;stroke-linecap:round;stroke-linejoin:round;stroke-miterlimit:10;stroke-dasharray:2.25, 3.75;stroke-dashoffset:0;stroke-opacity:1"
         id="path204"
         inkscape:connector-curvature="0" /><path
         d="m 242.87,311.72 0,5.56"
         style="fill:none;stroke:#4e6686;stroke-width:0.75;stroke-linecap:round;stroke-linejoin:round;stroke-miterlimit:10;stroke-dasharray:none;stroke-opacity:1"
         id="path206"
         inkscape:connector-curvature="0" /><path
         d="m 254.61,311.72 0,5.56"
         style="fill:none;stroke:#4e6686;stroke-width:0.75;stroke-linecap:round;stroke-linejoin:round;stroke-miterlimit:10;stroke-dasharray:none;stroke-opacity:1"
         id="path208"
         inkscape:connector-curvature="0" /><path
         d="m 242.87,308.94 0,11.12 11.74,0 0,-11.12 -11.74,0"
         style="fill:none;stroke:#4e6686;stroke-width:0.75;stroke-linecap:round;stroke-linejoin:round;stroke-miterlimit:10;stroke-dasharray:none;stroke-opacity:1"
         id="path210"
         inkscape:connector-curvature="0" /><path
         d="m 234.6,322.83 0,11.11 45.17,0 0,-11.11 -45.17,0 z"
         style="fill:#fedb3a;fill-opacity:0.6;fill-rule:nonzero;stroke:none"
         id="path212"
         inkscape:connector-curvature="0" /><path
         d="m 257.18,322.83 0,11.11"
         style="fill:none;stroke:#fedb3a;stroke-width:2.25;stroke-linecap:butt;stroke-linejoin:round;stroke-miterlimit:10;stroke-dasharray:none;stroke-opacity:1"
         id="path214"
         inkscape:connector-curvature="0" /><path
         d="m 234.6,328.39 0,0"
         style="fill:none;stroke:#fedb3a;stroke-width:0.75;stroke-linecap:round;stroke-linejoin:round;stroke-miterlimit:10;stroke-dasharray:2.25, 3.75;stroke-dashoffset:0;stroke-opacity:1"
         id="path216"
         inkscape:connector-curvature="0" /><path
         d="m 279.77,328.39 0,0"
         style="fill:none;stroke:#fedb3a;stroke-width:0.75;stroke-linecap:round;stroke-linejoin:round;stroke-miterlimit:10;stroke-dasharray:2.25, 3.75;stroke-dashoffset:0;stroke-opacity:1"
         id="path218"
         inkscape:connector-curvature="0" /><path
         d="m 234.6,325.61 0,5.56"
         style="fill:none;stroke:#fedb3a;stroke-width:0.75;stroke-linecap:round;stroke-linejoin:round;stroke-miterlimit:10;stroke-dasharray:none;stroke-opacity:1"
         id="path220"
         inkscape:connector-curvature="0" /><path
         d="m 279.77,325.61 0,5.56"
         style="fill:none;stroke:#fedb3a;stroke-width:0.75;stroke-linecap:round;stroke-linejoin:round;stroke-miterlimit:10;stroke-dasharray:none;stroke-opacity:1"
         id="path222"
         inkscape:connector-curvature="0" /><path
         d="m 234.6,322.83 0,11.11 45.17,0 0,-11.11 -45.17,0"
         style="fill:none;stroke:#fedb3a;stroke-width:0.75;stroke-linecap:round;stroke-linejoin:round;stroke-miterlimit:10;stroke-dasharray:none;stroke-opacity:1"
         id="path224"
         inkscape:connector-curvature="0" /><path
         d="m 277.71,336.72 0,11.11 12.09,0 0,-11.11 -12.09,0 z"
         style="fill:#fe6219;fill-opacity:0.6;fill-rule:nonzero;stroke:none"
         id="path226"
         inkscape:connector-curvature="0" /><path
         d="m 283.75,336.72 0,11.11"
         style="fill:none;stroke:#fe6219;stroke-width:2.25;stroke-linecap:butt;stroke-linejoin:round;stroke-miterlimit:10;stroke-dasharray:none;stroke-opacity:1"
         id="path228"
         inkscape:connector-curvature="0" /><path
         d="m 277.71,342.28 0,0"
         style="fill:none;stroke:#fe6219;stroke-width:0.75;stroke-linecap:round;stroke-linejoin:round;stroke-miterlimit:10;stroke-dasharray:2.25, 3.75;stroke-dashoffset:0;stroke-opacity:1"
         id="path230"
         inkscape:connector-curvature="0" /><path
         d="m 289.8,342.28 0,0"
         style="fill:none;stroke:#fe6219;stroke-width:0.75;stroke-linecap:round;stroke-linejoin:round;stroke-miterlimit:10;stroke-dasharray:2.25, 3.75;stroke-dashoffset:0;stroke-opacity:1"
         id="path232"
         inkscape:connector-curvature="0" /><path
         d="m 277.71,339.5 0,5.56"
         style="fill:none;stroke:#fe6219;stroke-width:0.75;stroke-linecap:round;stroke-linejoin:round;stroke-miterlimit:10;stroke-dasharray:none;stroke-opacity:1"
         id="path234"
         inkscape:connector-curvature="0" /><path
         d="m 289.8,339.5 0,5.56"
         style="fill:none;stroke:#fe6219;stroke-width:0.75;stroke-linecap:round;stroke-linejoin:round;stroke-miterlimit:10;stroke-dasharray:none;stroke-opacity:1"
         id="path236"
         inkscape:connector-curvature="0" /><path
         d="m 277.71,336.72 0,11.11 12.09,0 0,-11.11 -12.09,0"
         style="fill:none;stroke:#fe6219;stroke-width:0.75;stroke-linecap:round;stroke-linejoin:round;stroke-miterlimit:10;stroke-dasharray:none;stroke-opacity:1"
         id="path238"
         inkscape:connector-curvature="0" /><path
         d="m 257.56,364.5 0,11.11 11.75,0 0,-11.11 -11.75,0 z"
         style="fill:#070813;fill-opacity:0.6;fill-rule:nonzero;stroke:none"
         id="path240"
         inkscape:connector-curvature="0" /><path
         d="m 263.43,364.5 0,11.11"
         style="fill:none;stroke:#070813;stroke-width:2.25;stroke-linecap:butt;stroke-linejoin:round;stroke-miterlimit:10;stroke-dasharray:none;stroke-opacity:1"
         id="path242"
         inkscape:connector-curvature="0" /><path
         d="m 257.56,370.06 0,0"
         style="fill:none;stroke:#070813;stroke-width:0.75;stroke-linecap:round;stroke-linejoin:round;stroke-miterlimit:10;stroke-dasharray:2.25, 3.75;stroke-dashoffset:0;stroke-opacity:1"
         id="path244"
         inkscape:connector-curvature="0" /><path
         d="m 269.31,370.06 0,0"
         style="fill:none;stroke:#070813;stroke-width:0.75;stroke-linecap:round;stroke-linejoin:round;stroke-miterlimit:10;stroke-dasharray:2.25, 3.75;stroke-dashoffset:0;stroke-opacity:1"
         id="path246"
         inkscape:connector-curvature="0" /><path
         d="m 257.56,367.28 0,5.55"
         style="fill:none;stroke:#070813;stroke-width:0.75;stroke-linecap:round;stroke-linejoin:round;stroke-miterlimit:10;stroke-dasharray:none;stroke-opacity:1"
         id="path248"
         inkscape:connector-curvature="0" /><path
         d="m 269.31,367.28 0,5.55"
         style="fill:none;stroke:#070813;stroke-width:0.75;stroke-linecap:round;stroke-linejoin:round;stroke-miterlimit:10;stroke-dasharray:none;stroke-opacity:1"
         id="path250"
         inkscape:connector-curvature="0" /><path
         d="m 257.56,364.5 0,11.11 11.75,0 0,-11.11 -11.75,0"
         style="fill:none;stroke:#070813;stroke-width:0.75;stroke-linecap:round;stroke-linejoin:round;stroke-miterlimit:10;stroke-dasharray:none;stroke-opacity:1"
         id="path252"
         inkscape:connector-curvature="0" /><path
         d="m 256.19,378.39 0,11.11 23.67,0 0,-11.11 -23.67,0 z"
         style="fill:#4e6686;fill-opacity:0.6;fill-rule:nonzero;stroke:none"
         id="path254"
         inkscape:connector-curvature="0" /><path
         d="m 268.02,378.39 0,11.11"
         style="fill:none;stroke:#4e6686;stroke-width:2.25;stroke-linecap:butt;stroke-linejoin:round;stroke-miterlimit:10;stroke-dasharray:none;stroke-opacity:1"
         id="path256"
         inkscape:connector-curvature="0" /><path
         d="m 256.19,383.94 0,0"
         style="fill:none;stroke:#4e6686;stroke-width:0.75;stroke-linecap:round;stroke-linejoin:round;stroke-miterlimit:10;stroke-dasharray:2.25, 3.75;stroke-dashoffset:0;stroke-opacity:1"
         id="path258"
         inkscape:connector-curvature="0" /><path
         d="m 279.86,383.94 0,0"
         style="fill:none;stroke:#4e6686;stroke-width:0.75;stroke-linecap:round;stroke-linejoin:round;stroke-miterlimit:10;stroke-dasharray:2.25, 3.75;stroke-dashoffset:0;stroke-opacity:1"
         id="path260"
         inkscape:connector-curvature="0" /><path
         d="m 256.19,381.17 0,5.55"
         style="fill:none;stroke:#4e6686;stroke-width:0.75;stroke-linecap:round;stroke-linejoin:round;stroke-miterlimit:10;stroke-dasharray:none;stroke-opacity:1"
         id="path262"
         inkscape:connector-curvature="0" /><path
         d="m 279.86,381.17 0,5.55"
         style="fill:none;stroke:#4e6686;stroke-width:0.75;stroke-linecap:round;stroke-linejoin:round;stroke-miterlimit:10;stroke-dasharray:none;stroke-opacity:1"
         id="path264"
         inkscape:connector-curvature="0" /><path
         d="m 256.19,378.39 0,11.11 23.67,0 0,-11.11 -23.67,0"
         style="fill:none;stroke:#4e6686;stroke-width:0.75;stroke-linecap:round;stroke-linejoin:round;stroke-miterlimit:10;stroke-dasharray:none;stroke-opacity:1"
         id="path266"
         inkscape:connector-curvature="0" /><path
         d="m 289.38,392.28 0,11.11 2.77,0 0,-11.11 -2.77,0 z"
         style="fill:#fedb3a;fill-opacity:0.6;fill-rule:nonzero;stroke:none"
         id="path268"
         inkscape:connector-curvature="0" /><path
         d="m 290.76,392.28 0,11.11"
         style="fill:none;stroke:#fedb3a;stroke-width:2.25;stroke-linecap:butt;stroke-linejoin:round;stroke-miterlimit:10;stroke-dasharray:none;stroke-opacity:1"
         id="path270"
         inkscape:connector-curvature="0" /><path
         d="m 289.38,397.83 0,0"
         style="fill:none;stroke:#fedb3a;stroke-width:0.75;stroke-linecap:round;stroke-linejoin:round;stroke-miterlimit:10;stroke-dasharray:2.25, 3.75;stroke-dashoffset:0;stroke-opacity:1"
         id="path272"
         inkscape:connector-curvature="0" /><path
         d="m 292.15,397.83 0,0"
         style="fill:none;stroke:#fedb3a;stroke-width:0.75;stroke-linecap:round;stroke-linejoin:round;stroke-miterlimit:10;stroke-dasharray:2.25, 3.75;stroke-dashoffset:0;stroke-opacity:1"
         id="path274"
         inkscape:connector-curvature="0" /><path
         d="m 289.38,395.06 0,5.55"
         style="fill:none;stroke:#fedb3a;stroke-width:0.75;stroke-linecap:round;stroke-linejoin:round;stroke-miterlimit:10;stroke-dasharray:none;stroke-opacity:1"
         id="path276"
         inkscape:connector-curvature="0" /><path
         d="m 292.15,395.06 0,5.55"
         style="fill:none;stroke:#fedb3a;stroke-width:0.75;stroke-linecap:round;stroke-linejoin:round;stroke-miterlimit:10;stroke-dasharray:none;stroke-opacity:1"
         id="path278"
         inkscape:connector-curvature="0" /><path
         d="m 289.38,392.28 0,11.11 2.77,0 0,-11.11 -2.77,0"
         style="fill:none;stroke:#fedb3a;stroke-width:0.75;stroke-linecap:round;stroke-linejoin:round;stroke-miterlimit:10;stroke-dasharray:none;stroke-opacity:1"
         id="path280"
         inkscape:connector-curvature="0" /><path
         d="m 264.48,406.17 0,11.11 42.47,0 0,-11.11 -42.47,0 z"
         style="fill:#fe6219;fill-opacity:0.6;fill-rule:nonzero;stroke:none"
         id="path282"
         inkscape:connector-curvature="0" /><path
         d="m 285.71,406.17 0,11.11"
         style="fill:none;stroke:#fe6219;stroke-width:2.25;stroke-linecap:butt;stroke-linejoin:round;stroke-miterlimit:10;stroke-dasharray:none;stroke-opacity:1"
         id="path284"
         inkscape:connector-curvature="0" /><path
         d="m 264.48,411.72 0,0"
         style="fill:none;stroke:#fe6219;stroke-width:0.75;stroke-linecap:round;stroke-linejoin:round;stroke-miterlimit:10;stroke-dasharray:2.25, 3.75;stroke-dashoffset:0;stroke-opacity:1"
         id="path286"
         inkscape:connector-curvature="0" /><path
         d="m 306.95,411.72 0,0"
         style="fill:none;stroke:#fe6219;stroke-width:0.75;stroke-linecap:round;stroke-linejoin:round;stroke-miterlimit:10;stroke-dasharray:2.25, 3.75;stroke-dashoffset:0;stroke-opacity:1"
         id="path288"
         inkscape:connector-curvature="0" /><path
         d="m 264.48,408.94 0,5.56"
         style="fill:none;stroke:#fe6219;stroke-width:0.75;stroke-linecap:round;stroke-linejoin:round;stroke-miterlimit:10;stroke-dasharray:none;stroke-opacity:1"
         id="path290"
         inkscape:connector-curvature="0" /><path
         d="m 306.95,408.94 0,5.56"
         style="fill:none;stroke:#fe6219;stroke-width:0.75;stroke-linecap:round;stroke-linejoin:round;stroke-miterlimit:10;stroke-dasharray:none;stroke-opacity:1"
         id="path292"
         inkscape:connector-curvature="0" /><path
         d="m 264.48,406.17 0,11.11 42.47,0 0,-11.11 -42.47,0"
         style="fill:none;stroke:#fe6219;stroke-width:0.75;stroke-linecap:round;stroke-linejoin:round;stroke-miterlimit:10;stroke-dasharray:none;stroke-opacity:1"
         id="path294"
         inkscape:connector-curvature="0" /></g><g
       id="g296"><path
         d="m 216,92.28 0,319.44"
         style="fill:none;stroke:#000000;stroke-width:0.75;stroke-linecap:round;stroke-linejoin:round;stroke-miterlimit:10;stroke-dasharray:none;stroke-opacity:1"
         id="path298"
         inkscape:connector-curvature="0" /><path
         d="m 216,92.28 -7.2,0"
         style="fill:none;stroke:#000000;stroke-width:0.75;stroke-linecap:round;stroke-linejoin:round;stroke-miterlimit:10;stroke-dasharray:none;stroke-opacity:1"
         id="path300"
         inkscape:connector-curvature="0" /><path
         d="m 216,106.17 -7.2,0"
         style="fill:none;stroke:#000000;stroke-width:0.75;stroke-linecap:round;stroke-linejoin:round;stroke-miterlimit:10;stroke-dasharray:none;stroke-opacity:1"
         id="path302"
         inkscape:connector-curvature="0" /><path
         d="m 216,120.06 -7.2,0"
         style="fill:none;stroke:#000000;stroke-width:0.75;stroke-linecap:round;stroke-linejoin:round;stroke-miterlimit:10;stroke-dasharray:none;stroke-opacity:1"
         id="path304"
         inkscape:connector-curvature="0" /><path
         d="m 216,133.94 -7.2,0"
         style="fill:none;stroke:#000000;stroke-width:0.75;stroke-linecap:round;stroke-linejoin:round;stroke-miterlimit:10;stroke-dasharray:none;stroke-opacity:1"
         id="path306"
         inkscape:connector-curvature="0" /><path
         d="m 216,161.72 -7.2,0"
         style="fill:none;stroke:#000000;stroke-width:0.75;stroke-linecap:round;stroke-linejoin:round;stroke-miterlimit:10;stroke-dasharray:none;stroke-opacity:1"
         id="path308"
         inkscape:connector-curvature="0" /><path
         d="m 216,175.61 -7.2,0"
         style="fill:none;stroke:#000000;stroke-width:0.75;stroke-linecap:round;stroke-linejoin:round;stroke-miterlimit:10;stroke-dasharray:none;stroke-opacity:1"
         id="path310"
         inkscape:connector-curvature="0" /><path
         d="m 216,189.5 -7.2,0"
         style="fill:none;stroke:#000000;stroke-width:0.75;stroke-linecap:round;stroke-linejoin:round;stroke-miterlimit:10;stroke-dasharray:none;stroke-opacity:1"
         id="path312"
         inkscape:connector-curvature="0" /><path
         d="m 216,203.39 -7.2,0"
         style="fill:none;stroke:#000000;stroke-width:0.75;stroke-linecap:round;stroke-linejoin:round;stroke-miterlimit:10;stroke-dasharray:none;stroke-opacity:1"
         id="path314"
         inkscape:connector-curvature="0" /><path
         d="m 216,231.17 -7.2,0"
         style="fill:none;stroke:#000000;stroke-width:0.75;stroke-linecap:round;stroke-linejoin:round;stroke-miterlimit:10;stroke-dasharray:none;stroke-opacity:1"
         id="path316"
         inkscape:connector-curvature="0" /><path
         d="m 216,245.06 -7.2,0"
         style="fill:none;stroke:#000000;stroke-width:0.75;stroke-linecap:round;stroke-linejoin:round;stroke-miterlimit:10;stroke-dasharray:none;stroke-opacity:1"
         id="path318"
         inkscape:connector-curvature="0" /><path
         d="m 216,258.94 -7.2,0"
         style="fill:none;stroke:#000000;stroke-width:0.75;stroke-linecap:round;stroke-linejoin:round;stroke-miterlimit:10;stroke-dasharray:none;stroke-opacity:1"
         id="path320"
         inkscape:connector-curvature="0" /><path
         d="m 216,272.83 -7.2,0"
         style="fill:none;stroke:#000000;stroke-width:0.75;stroke-linecap:round;stroke-linejoin:round;stroke-miterlimit:10;stroke-dasharray:none;stroke-opacity:1"
         id="path322"
         inkscape:connector-curvature="0" /><path
         d="m 216,300.61 -7.2,0"
         style="fill:none;stroke:#000000;stroke-width:0.75;stroke-linecap:round;stroke-linejoin:round;stroke-miterlimit:10;stroke-dasharray:none;stroke-opacity:1"
         id="path324"
         inkscape:connector-curvature="0" /><path
         d="m 216,314.5 -7.2,0"
         style="fill:none;stroke:#000000;stroke-width:0.75;stroke-linecap:round;stroke-linejoin:round;stroke-miterlimit:10;stroke-dasharray:none;stroke-opacity:1"
         id="path326"
         inkscape:connector-curvature="0" /><path
         d="m 216,328.39 -7.2,0"
         style="fill:none;stroke:#000000;stroke-width:0.75;stroke-linecap:round;stroke-linejoin:round;stroke-miterlimit:10;stroke-dasharray:none;stroke-opacity:1"
         id="path328"
         inkscape:connector-curvature="0" /><path
         d="m 216,342.28 -7.2,0"
         style="fill:none;stroke:#000000;stroke-width:0.75;stroke-linecap:round;stroke-linejoin:round;stroke-miterlimit:10;stroke-dasharray:none;stroke-opacity:1"
         id="path330"
         inkscape:connector-curvature="0" /><path
         d="m 216,370.06 -7.2,0"
         style="fill:none;stroke:#000000;stroke-width:0.75;stroke-linecap:round;stroke-linejoin:round;stroke-miterlimit:10;stroke-dasharray:none;stroke-opacity:1"
         id="path332"
         inkscape:connector-curvature="0" /><path
         d="m 216,383.94 -7.2,0"
         style="fill:none;stroke:#000000;stroke-width:0.75;stroke-linecap:round;stroke-linejoin:round;stroke-miterlimit:10;stroke-dasharray:none;stroke-opacity:1"
         id="path334"
         inkscape:connector-curvature="0" /><path
         d="m 216,397.83 -7.2,0"
         style="fill:none;stroke:#000000;stroke-width:0.75;stroke-linecap:round;stroke-linejoin:round;stroke-miterlimit:10;stroke-dasharray:none;stroke-opacity:1"
         id="path336"
         inkscape:connector-curvature="0" /><path
         d="m 216,411.72 -7.2,0"
         style="fill:none;stroke:#000000;stroke-width:0.75;stroke-linecap:round;stroke-linejoin:round;stroke-miterlimit:10;stroke-dasharray:none;stroke-opacity:1"
         id="path338"
         inkscape:connector-curvature="0" /><path
         d="m 238.55,72 95.21,0"
         style="fill:none;stroke:#000000;stroke-width:0.75;stroke-linecap:round;stroke-linejoin:round;stroke-miterlimit:10;stroke-dasharray:none;stroke-opacity:1"
         id="path340"
         inkscape:connector-curvature="0" /><path
         d="m 238.55,72 0,-7.2"
         style="fill:none;stroke:#000000;stroke-width:0.75;stroke-linecap:round;stroke-linejoin:round;stroke-miterlimit:10;stroke-dasharray:none;stroke-opacity:1"
         id="path342"
         inkscape:connector-curvature="0" /><path
         d="m 270.28,72 0,-7.2"
         style="fill:none;stroke:#000000;stroke-width:0.75;stroke-linecap:round;stroke-linejoin:round;stroke-miterlimit:10;stroke-dasharray:none;stroke-opacity:1"
         id="path344"
         inkscape:connector-curvature="0" /><path
         d="m 302.02,72 0,-7.2"
         style="fill:none;stroke:#000000;stroke-width:0.75;stroke-linecap:round;stroke-linejoin:round;stroke-miterlimit:10;stroke-dasharray:none;stroke-opacity:1"
         id="path346"
         inkscape:connector-curvature="0" /><path
         d="m 333.76,72 0,-7.2"
         style="fill:none;stroke:#000000;stroke-width:0.75;stroke-linecap:round;stroke-linejoin:round;stroke-miterlimit:10;stroke-dasharray:none;stroke-opacity:1"
         id="path348"
         inkscape:connector-curvature="0" /><text
         transform="matrix(0,1,1,0,242.85,37.58)"
         style="font-variant:normal;font-weight:normal;font-size:12px;font-family:Helvetica;-inkscape-font-specification:Helvetica;writing-mode:lr-tb;fill:#000000;fill-opacity:1;fill-rule:nonzero;stroke:none"
         id="text350"><tspan
           x="0 6.6719999 13.344"
           y="0"
           sodipodi:role="line"
           id="tspan352">200</tspan></text>
<text
         transform="matrix(0,1,1,0,274.59,37.58)"
         style="font-variant:normal;font-weight:normal;font-size:12px;font-family:Helvetica;-inkscape-font-specification:Helvetica;writing-mode:lr-tb;fill:#000000;fill-opacity:1;fill-rule:nonzero;stroke:none"
         id="text354"><tspan
           x="0 6.6719999 13.344"
           y="0"
           sodipodi:role="line"
           id="tspan356">300</tspan></text>
<text
         transform="matrix(0,1,1,0,306.33,37.58)"
         style="font-variant:normal;font-weight:normal;font-size:12px;font-family:Helvetica;-inkscape-font-specification:Helvetica;writing-mode:lr-tb;fill:#000000;fill-opacity:1;fill-rule:nonzero;stroke:none"
         id="text358"><tspan
           x="0 6.6719999 13.344"
           y="0"
           sodipodi:role="line"
           id="tspan360">400</tspan></text>
<text
         transform="matrix(0,1,1,0,338.07,37.58)"
         style="font-variant:normal;font-weight:normal;font-size:12px;font-family:Helvetica;-inkscape-font-specification:Helvetica;writing-mode:lr-tb;fill:#000000;fill-opacity:1;fill-rule:nonzero;stroke:none"
         id="text362"><tspan
           x="0 6.6719999 13.344"
           y="0"
           sodipodi:role="line"
           id="tspan364">500</tspan></text>
</g><g
       id="g366"
       transform="translate(-5.2853236,-4.5302773)"><text
         transform="matrix(1,0,0,-1,230.98,17.28)"
         style="font-variant:normal;font-weight:normal;font-size:12px;font-family:Helvetica;-inkscape-font-specification:Helvetica;writing-mode:lr-tb;fill:#000000;fill-opacity:1;fill-rule:nonzero;stroke:none"
         id="text368"><tspan
           x="0 8.6639996 15.336 22.007999 28.68 35.352001 38.688 45.360001 48.023998 53.723999 60.396 64.391998 70.391998 73.056 76.391998 82.391998 85.727997 88.391998 95.064003 101.736 108.048"
           y="0"
           sodipodi:role="line"
           id="tspan370">Chao1 diversity index</tspan></text>
</g><g
       id="g372"><text
         transform="matrix(1,0,0,-1,110.4,108.8)"
         style="font-variant:normal;font-weight:normal;font-size:12px;font-family:Helvetica;-inkscape-font-specification:Helvetica;writing-mode:lr-tb;fill:#000000;fill-opacity:1;fill-rule:nonzero;stroke:none"
         id="text374"><tspan
           x="0 8.0039997 14.676 21.348 27.348 34.02 37.355999 40.692001 47.363998 53.855999 62.52 69.192001 75.192001 77.856003 84.528"
           y="0"
           sodipodi:role="line"
           id="tspan376">Bench, downside</tspan></text>
<text
         transform="matrix(1,0,0,-1,174.26,178.25)"
         style="font-variant:normal;font-weight:normal;font-size:12px;font-family:Helvetica;-inkscape-font-specification:Helvetica;writing-mode:lr-tb;fill:#000000;fill-opacity:1;fill-rule:nonzero;stroke:none"
         id="text378"><tspan
           x="0 7.3319998 9.9960003 16.667999 23.34"
           y="0"
           sodipodi:role="line"
           id="tspan380">Floor</tspan></text>
<text
         transform="matrix(1,0,0,-1,122.23,254.89)"
         style="font-variant:normal;font-weight:normal;font-size:12px;font-family:Helvetica;-inkscape-font-specification:Helvetica;writing-mode:lr-tb;fill:#000000;fill-opacity:1;fill-rule:nonzero;stroke:none"
         id="text382"><tspan
           x="0 9.9960003 12.66 18.66 22.656 29.327999 36 42.672001 49.344002 56.015999 62.688 66.024002 72.695999 76.031998"
           y="0"
           sodipodi:role="line"
           id="tspan384">Microphone of </tspan></text>
<text
         transform="matrix(1,0,0,-1,91.56,240.49)"
         style="font-variant:normal;font-weight:normal;font-size:12px;font-family:Helvetica;-inkscape-font-specification:Helvetica;writing-mode:lr-tb;fill:#000000;fill-opacity:1;fill-rule:nonzero;stroke:none"
         id="text386"><tspan
           x="0 6.6719999 16.667999 23.34 27.336 34.007999 40.68 47.352001 53.352001 59.352001 62.688 68.688004 75.360001 78.024002 80.688004 84.024002 90.695999 97.367996 100.032 106.704"
           y="0"
           sodipodi:role="line"
           id="tspan388">emergency call point</tspan></text>
<text
         transform="matrix(1,0,0,-1,79.56,317.14)"
         style="font-variant:normal;font-weight:normal;font-size:12px;font-family:Helvetica;-inkscape-font-specification:Helvetica;writing-mode:lr-tb;fill:#000000;fill-opacity:1;fill-rule:nonzero;stroke:none"
         id="text390"><tspan
           x="0 8.6639996 15.336 18 20.664 23.327999 30 36.672001 42.672001 46.007999 52.68 59.352001 66.024002 70.019997 73.356003 80.028 86.028 92.028 98.699997 101.364 108.036 111.372 118.044"
           y="0"
           sodipodi:role="line"
           id="tspan392">Railings near escalator</tspan></text>
<text
         transform="matrix(1,0,0,-1,80.71,386.58)"
         style="font-variant:normal;font-weight:normal;font-size:12px;font-family:Helvetica;-inkscape-font-specification:Helvetica;writing-mode:lr-tb;fill:#000000;fill-opacity:1;fill-rule:nonzero;stroke:none"
         id="text394"><tspan
           x="0 10.848 17.52 20.184 22.848 26.184 30.18 36.852001 40.188 43.523998 49.523998 56.195999 62.868 69.540001 72.204002 78.875999 85.547997 89.543999 92.879997 95.543999 101.856 107.556 114.228 116.892"
           y="0"
           sodipodi:role="line"
           id="tspan396">Wall (at shoulder level)</tspan></text>
</g><path
       inkscape:connector-curvature="0"
       id="path400"
       style="fill:none;stroke:#7f7f7f;stroke-width:0.75;stroke-linecap:round;stroke-linejoin:round;stroke-miterlimit:10;stroke-dasharray:2.25, 3.75;stroke-dashoffset:0;stroke-opacity:1"
       d="m 175.07,147.83 190.42,0" /><path
       inkscape:connector-curvature="0"
       id="path402"
       style="fill:none;stroke:#7f7f7f;stroke-width:0.75;stroke-linecap:round;stroke-linejoin:round;stroke-miterlimit:10;stroke-dasharray:2.25, 3.75;stroke-dashoffset:0;stroke-opacity:1"
       d="m 175.07,217.28 190.42,0" /><path
       inkscape:connector-curvature="0"
       id="path404"
       style="fill:none;stroke:#7f7f7f;stroke-width:0.75;stroke-linecap:round;stroke-linejoin:round;stroke-miterlimit:10;stroke-dasharray:2.25, 3.75;stroke-dashoffset:0;stroke-opacity:1"
       d="m 175.07,286.72 190.42,0" /><path
       inkscape:connector-curvature="0"
       id="path406"
       style="fill:none;stroke:#7f7f7f;stroke-width:0.75;stroke-linecap:round;stroke-linejoin:round;stroke-miterlimit:10;stroke-dasharray:2.25, 3.75;stroke-dashoffset:0;stroke-opacity:1"
       d="m 175.07,356.17 190.42,0" /><path
       inkscape:connector-curvature="0"
       id="path408"
       style="fill:#070813;fill-opacity:0.6;fill-rule:nonzero;stroke:#070813;stroke-width:0.75;stroke-linecap:round;stroke-linejoin:round;stroke-miterlimit:10;stroke-dasharray:none;stroke-opacity:1"
       d="m 380.0612,416.3201 8.64,0 0,-7.2 -8.64,0 0,7.2 z" /><path
       inkscape:connector-curvature="0"
       id="path410"
       style="fill:#4e6686;fill-opacity:0.6;fill-rule:nonzero;stroke:#4e6686;stroke-width:0.75;stroke-linecap:round;stroke-linejoin:round;stroke-miterlimit:10;stroke-dasharray:none;stroke-opacity:1"
       d="m 380.0612,401.9201 8.64,0 0,-7.2 -8.64,0 0,7.2 z" /><path
       inkscape:connector-curvature="0"
       id="path412"
       style="fill:#fedb3a;fill-opacity:0.6;fill-rule:nonzero;stroke:#fedb3a;stroke-width:0.75;stroke-linecap:round;stroke-linejoin:round;stroke-miterlimit:10;stroke-dasharray:none;stroke-opacity:1"
       d="m 380.0612,387.5201 8.64,0 0,-7.2 -8.64,0 0,7.2 z" /><path
       inkscape:connector-curvature="0"
       id="path414"
       style="fill:#fe6219;fill-opacity:0.6;fill-rule:nonzero;stroke:#fe6219;stroke-width:0.75;stroke-linecap:round;stroke-linejoin:round;stroke-miterlimit:10;stroke-dasharray:none;stroke-opacity:1"
       d="m 380.0612,373.1201 8.64,0 0,-7.2 -8.64,0 0,7.2 z" /><text
       id="text416"
       style="font-variant:normal;font-weight:normal;font-size:12px;font-family:Helvetica;-inkscape-font-specification:Helvetica;writing-mode:lr-tb;fill:#000000;fill-opacity:1;fill-rule:nonzero;stroke:none"
       transform="scale(1,-1)"
       x="399.50122"
       y="-408.41006"><tspan
         id="tspan418"
         sodipodi:role="line"
         y="-408.41006"
         x="399.50122 407.50522 413.50522 419.50522 422.84122 429.27322 434.97324 441.64523 447.64523 454.31723 460.98923 467.30124 473.06122">Vystavochnaya</tspan></text>
<text
       id="text420"
       style="font-variant:normal;font-weight:normal;font-size:12px;font-family:Helvetica;-inkscape-font-specification:Helvetica;writing-mode:lr-tb;fill:#000000;fill-opacity:1;fill-rule:nonzero;stroke:none"
       transform="scale(1,-1)"
       x="399.50122"
       y="-394.01007"><tspan
         id="tspan422"
         sodipodi:role="line"
         y="-394.01007"
         x="399.50122 408.16522 414.83722 420.83722 424.17322 430.48523 436.24524 442.55722 448.55722 454.55722 460.55722 466.86923 472.62921">Dostoyevskaya</tspan></text>
<text
       id="text424"
       style="font-variant:normal;font-weight:normal;font-size:12px;font-family:Helvetica;-inkscape-font-specification:Helvetica;writing-mode:lr-tb;fill:#000000;fill-opacity:1;fill-rule:nonzero;stroke:none"
       transform="scale(1,-1)"
       x="399.50122"
       y="-379.61008"><tspan
         id="tspan426"
         sodipodi:role="line"
         y="-379.61008"
         x="399.50122 407.50522 411.50122 418.17322 421.50922 428.18121 434.85324 440.85324 446.85324 449.51721 455.51721 458.85324 465.52524 472.19724 478.86923 481.53323 487.84521 493.54523 500.21722 504.21323">Sretenskiy boulevard</tspan></text>
<text
       id="text428"
       style="font-variant:normal;font-weight:normal;font-size:12px;font-family:Helvetica;-inkscape-font-specification:Helvetica;writing-mode:lr-tb;fill:#000000;fill-opacity:1;fill-rule:nonzero;stroke:none"
       transform="scale(1,-1)"
       x="399.50122"
       y="-365.21008"><tspan
         id="tspan430"
         sodipodi:role="line"
         y="-365.21008"
         x="399.50122 408.16522 410.82922 420.82523 426.82523 432.82523 439.13724 444.89722">Rimskaya</tspan></text>
</g></svg>